<?xml version="1.0" encoding="UTF-8"?><svg xmlns="http://www.w3.org/2000/svg" xmlns:xlink="http://www.w3.org/1999/xlink" fill-opacity="1" color-rendering="auto" color-interpolation="auto" stroke="black" text-rendering="auto" stroke-linecap="square" width="1177" stroke-miterlimit="10" stroke-opacity="1" shape-rendering="auto" fill="black" stroke-dasharray="none" font-weight="normal" stroke-width="1" height="222" font-family="'Dialog'" font-style="normal" stroke-linejoin="miter" font-size="12" stroke-dashoffset="0" image-rendering="auto">
  <!--Generated by ySVG 2.5-->
  <defs id="genericDefs"/>
  <g>
    <defs id="defs1">
      <linearGradient x1="301" gradientUnits="userSpaceOnUse" x2="461" y1="96" y2="116" id="linearGradient1" spreadMethod="reflect">
        <stop stop-opacity="1" stop-color="rgb(232,238,247)" offset="0%"/>
        <stop stop-opacity="1" stop-color="rgb(183,201,227)" offset="100%"/>
      </linearGradient>
      <linearGradient x1="505.0947" gradientUnits="userSpaceOnUse" x2="604.9053" y1="86" y2="126" id="linearGradient2" spreadMethod="reflect">
        <stop stop-opacity="1" stop-color="rgb(232,238,247)" offset="0%"/>
        <stop stop-opacity="1" stop-color="rgb(183,201,227)" offset="100%"/>
      </linearGradient>
      <linearGradient x1="157.0947" gradientUnits="userSpaceOnUse" x2="256.9053" y1="86" y2="126" id="linearGradient3" spreadMethod="reflect">
        <stop stop-opacity="1" stop-color="rgb(232,238,247)" offset="0%"/>
        <stop stop-opacity="1" stop-color="rgb(183,201,227)" offset="100%"/>
      </linearGradient>
      <linearGradient x1="649" gradientUnits="userSpaceOnUse" x2="809" y1="50" y2="70" id="linearGradient4" spreadMethod="reflect">
        <stop stop-opacity="1" stop-color="rgb(232,238,247)" offset="0%"/>
        <stop stop-opacity="1" stop-color="rgb(183,201,227)" offset="100%"/>
      </linearGradient>
      <linearGradient x1="649" gradientUnits="userSpaceOnUse" x2="809" y1="96" y2="116" id="linearGradient5" spreadMethod="reflect">
        <stop stop-opacity="1" stop-color="rgb(232,238,247)" offset="0%"/>
        <stop stop-opacity="1" stop-color="rgb(183,201,227)" offset="100%"/>
      </linearGradient>
      <linearGradient x1="649" gradientUnits="userSpaceOnUse" x2="809" y1="142" y2="162" id="linearGradient6" spreadMethod="reflect">
        <stop stop-opacity="1" stop-color="rgb(232,238,247)" offset="0%"/>
        <stop stop-opacity="1" stop-color="rgb(183,201,227)" offset="100%"/>
      </linearGradient>
      <linearGradient x1="853.0947" gradientUnits="userSpaceOnUse" x2="952.9053" y1="30" y2="70" id="linearGradient7" spreadMethod="reflect">
        <stop stop-opacity="1" stop-color="rgb(232,238,247)" offset="0%"/>
        <stop stop-opacity="1" stop-color="rgb(183,201,227)" offset="100%"/>
      </linearGradient>
      <linearGradient x1="853.0947" gradientUnits="userSpaceOnUse" x2="952.9053" y1="86" y2="126" id="linearGradient8" spreadMethod="reflect">
        <stop stop-opacity="1" stop-color="rgb(232,238,247)" offset="0%"/>
        <stop stop-opacity="1" stop-color="rgb(183,201,227)" offset="100%"/>
      </linearGradient>
      <linearGradient x1="853.0947" gradientUnits="userSpaceOnUse" x2="952.9053" y1="142" y2="182" id="linearGradient9" spreadMethod="reflect">
        <stop stop-opacity="1" stop-color="rgb(232,238,247)" offset="0%"/>
        <stop stop-opacity="1" stop-color="rgb(183,201,227)" offset="100%"/>
      </linearGradient>
      <linearGradient x1="997" gradientUnits="userSpaceOnUse" x2="1233" y1="96" y2="116" id="linearGradient10" spreadMethod="reflect">
        <stop stop-opacity="1" stop-color="rgb(232,238,247)" offset="0%"/>
        <stop stop-opacity="1" stop-color="rgb(183,201,227)" offset="100%"/>
      </linearGradient>
      <linearGradient x1="997" gradientUnits="userSpaceOnUse" x2="1233" y1="152" y2="172" id="linearGradient11" spreadMethod="reflect">
        <stop stop-opacity="1" stop-color="rgb(232,238,247)" offset="0%"/>
        <stop stop-opacity="1" stop-color="rgb(183,201,227)" offset="100%"/>
      </linearGradient>
      <clipPath clipPathUnits="userSpaceOnUse" id="clipPath1">
        <path d="M0 0 L1177 0 L1177 222 L0 222 L0 0 Z"/>
      </clipPath>
      <clipPath clipPathUnits="userSpaceOnUse" id="clipPath2">
        <path d="M142 -25 L1319 -25 L1319 197 L142 197 L142 -25 Z"/>
      </clipPath>
    </defs>
    <g fill="white" text-rendering="geometricPrecision" shape-rendering="geometricPrecision" transform="translate(-142,25)" stroke="white">
      <rect x="142" width="1177" height="222" y="-25" clip-path="url(#clipPath2)" stroke="none"/>
    </g>
    <g fill="url(#linearGradient1)" text-rendering="geometricPrecision" shape-rendering="geometricPrecision" transform="matrix(1,0,0,1,-142,25)" stroke="url(#linearGradient1)">
      <rect x="301" width="160" height="20" y="96" clip-path="url(#clipPath2)" stroke="none"/>
    </g>
    <g text-rendering="geometricPrecision" stroke-miterlimit="1.45" shape-rendering="geometricPrecision" transform="matrix(1,0,0,1,-142,25)" stroke-linecap="butt">
      <rect fill="none" x="301" width="160" height="20" y="96" clip-path="url(#clipPath2)"/>
      <path fill="none" d="M311 96 L311 116 M451 96 L451 116 M311 96 Z" clip-path="url(#clipPath2)"/>
      <text x="336.0703" xml:space="preserve" y="110.1543" font-family="sans-serif" clip-path="url(#clipPath2)" stroke="none">Execution FIFO</text>
    </g>
    <g fill="url(#linearGradient2)" text-rendering="geometricPrecision" shape-rendering="geometricPrecision" transform="matrix(1,0,0,1,-142,25)" stroke="url(#linearGradient2)">
      <path d="M505.0947 86 L604.9053 86 L604.9053 126 L505.0947 126 Z" clip-path="url(#clipPath2)" stroke="none"/>
    </g>
    <g text-rendering="geometricPrecision" stroke-miterlimit="1.45" shape-rendering="geometricPrecision" transform="matrix(1,0,0,1,-142,25)" stroke-linecap="butt">
      <path fill="none" d="M505.0947 86 L604.9053 86 L604.9053 126 L505.0947 126 Z" clip-path="url(#clipPath2)"/>
      <text x="525.3721" xml:space="preserve" y="103.1699" font-family="sans-serif" clip-path="url(#clipPath2)" stroke="none">Execution</text>
      <text x="512.0947" xml:space="preserve" y="117.1387" font-family="sans-serif" clip-path="url(#clipPath2)" stroke="none">State Machine</text>
    </g>
    <g fill="url(#linearGradient3)" text-rendering="geometricPrecision" shape-rendering="geometricPrecision" transform="matrix(1,0,0,1,-142,25)" stroke="url(#linearGradient3)">
      <path d="M157.0947 86 L256.9053 86 L256.9053 126 L157.0947 126 Z" clip-path="url(#clipPath2)" stroke="none"/>
    </g>
    <g text-rendering="geometricPrecision" stroke-miterlimit="1.45" shape-rendering="geometricPrecision" transform="matrix(1,0,0,1,-142,25)" stroke-linecap="butt">
      <path fill="none" d="M157.0947 86 L256.9053 86 L256.9053 126 L157.0947 126 Z" clip-path="url(#clipPath2)"/>
      <text x="190.4033" xml:space="preserve" y="103.1699" font-family="sans-serif" clip-path="url(#clipPath2)" stroke="none">Fetch</text>
      <text x="164.0947" xml:space="preserve" y="117.1387" font-family="sans-serif" clip-path="url(#clipPath2)" stroke="none">State Machine</text>
    </g>
    <g fill="url(#linearGradient4)" text-rendering="geometricPrecision" shape-rendering="geometricPrecision" transform="matrix(1,0,0,1,-142,25)" stroke="url(#linearGradient4)">
      <rect x="649" width="160" height="20" y="50" clip-path="url(#clipPath2)" stroke="none"/>
    </g>
    <g text-rendering="geometricPrecision" stroke-miterlimit="1.45" shape-rendering="geometricPrecision" transform="matrix(1,0,0,1,-142,25)" stroke-linecap="butt">
      <rect fill="none" x="649" width="160" height="20" y="50" clip-path="url(#clipPath2)"/>
      <path fill="none" d="M659 50 L659 70 M799 50 L799 70 M659 50 Z" clip-path="url(#clipPath2)"/>
      <text x="679.333" xml:space="preserve" y="64.1543" font-family="sans-serif" clip-path="url(#clipPath2)" stroke="none">Completion FIFO</text>
    </g>
    <g fill="url(#linearGradient5)" text-rendering="geometricPrecision" shape-rendering="geometricPrecision" transform="matrix(1,0,0,1,-142,25)" stroke="url(#linearGradient5)">
      <rect x="649" width="160" height="20" y="96" clip-path="url(#clipPath2)" stroke="none"/>
    </g>
    <g text-rendering="geometricPrecision" stroke-miterlimit="1.45" shape-rendering="geometricPrecision" transform="matrix(1,0,0,1,-142,25)" stroke-linecap="butt">
      <rect fill="none" x="649" width="160" height="20" y="96" clip-path="url(#clipPath2)"/>
      <path fill="none" d="M659 96 L659 116 M799 96 L799 116 M659 96 Z" clip-path="url(#clipPath2)"/>
      <text x="672.457" xml:space="preserve" y="110.1543" font-family="sans-serif" clip-path="url(#clipPath2)" stroke="none">Data Transfer FIFO</text>
    </g>
    <g fill="url(#linearGradient6)" text-rendering="geometricPrecision" shape-rendering="geometricPrecision" transform="matrix(1,0,0,1,-142,25)" stroke="url(#linearGradient6)">
      <rect x="649" width="160" height="20" y="142" clip-path="url(#clipPath2)" stroke="none"/>
    </g>
    <g text-rendering="geometricPrecision" stroke-miterlimit="1.45" shape-rendering="geometricPrecision" transform="matrix(1,0,0,1,-142,25)" stroke-linecap="butt">
      <rect fill="none" x="649" width="160" height="20" y="142" clip-path="url(#clipPath2)"/>
      <path fill="none" d="M659 142 L659 162 M799 142 L799 162 M659 142 Z" clip-path="url(#clipPath2)"/>
      <text x="669.4219" xml:space="preserve" y="156.1543" font-family="sans-serif" clip-path="url(#clipPath2)" stroke="none">Data Structure FIFO</text>
    </g>
    <g fill="url(#linearGradient7)" text-rendering="geometricPrecision" shape-rendering="geometricPrecision" transform="matrix(1,0,0,1,-142,25)" stroke="url(#linearGradient7)">
      <path d="M853.0947 30 L952.9053 30 L952.9053 70 L853.0947 70 Z" clip-path="url(#clipPath2)" stroke="none"/>
    </g>
    <g text-rendering="geometricPrecision" stroke-miterlimit="1.45" shape-rendering="geometricPrecision" transform="matrix(1,0,0,1,-142,25)" stroke-linecap="butt">
      <path fill="none" d="M853.0947 30 L952.9053 30 L952.9053 70 L853.0947 70 Z" clip-path="url(#clipPath2)"/>
      <text x="868.6348" xml:space="preserve" y="47.1699" font-family="sans-serif" clip-path="url(#clipPath2)" stroke="none">Completion</text>
      <text x="860.0947" xml:space="preserve" y="61.1387" font-family="sans-serif" clip-path="url(#clipPath2)" stroke="none">State Machine</text>
    </g>
    <g fill="url(#linearGradient8)" text-rendering="geometricPrecision" shape-rendering="geometricPrecision" transform="matrix(1,0,0,1,-142,25)" stroke="url(#linearGradient8)">
      <path d="M853.0947 86 L952.9053 86 L952.9053 126 L853.0947 126 Z" clip-path="url(#clipPath2)" stroke="none"/>
    </g>
    <g text-rendering="geometricPrecision" stroke-miterlimit="1.45" shape-rendering="geometricPrecision" transform="matrix(1,0,0,1,-142,25)" stroke-linecap="butt">
      <path fill="none" d="M853.0947 86 L952.9053 86 L952.9053 126 L853.0947 126 Z" clip-path="url(#clipPath2)"/>
      <text x="861.7588" xml:space="preserve" y="103.1699" font-family="sans-serif" clip-path="url(#clipPath2)" stroke="none">Data Transfer</text>
      <text x="860.0947" xml:space="preserve" y="117.1387" font-family="sans-serif" clip-path="url(#clipPath2)" stroke="none">State Machine</text>
    </g>
    <g fill="url(#linearGradient9)" text-rendering="geometricPrecision" shape-rendering="geometricPrecision" transform="matrix(1,0,0,1,-142,25)" stroke="url(#linearGradient9)">
      <path d="M853.0947 142 L952.9053 142 L952.9053 182 L853.0947 182 Z" clip-path="url(#clipPath2)" stroke="none"/>
    </g>
    <g text-rendering="geometricPrecision" stroke-miterlimit="1.45" shape-rendering="geometricPrecision" transform="matrix(1,0,0,1,-142,25)" stroke-linecap="butt">
      <path fill="none" d="M853.0947 142 L952.9053 142 L952.9053 182 L853.0947 182 Z" clip-path="url(#clipPath2)"/>
      <text x="858.7236" xml:space="preserve" y="159.1699" font-family="sans-serif" clip-path="url(#clipPath2)" stroke="none">Data Structure</text>
      <text x="860.0947" xml:space="preserve" y="173.1387" font-family="sans-serif" clip-path="url(#clipPath2)" stroke="none">State Machine</text>
    </g>
    <g fill="url(#linearGradient10)" text-rendering="geometricPrecision" shape-rendering="geometricPrecision" transform="matrix(1,0,0,1,-142,25)" stroke="url(#linearGradient10)">
      <rect x="997" width="236" height="20" y="96" clip-path="url(#clipPath2)" stroke="none"/>
    </g>
    <g text-rendering="geometricPrecision" stroke-miterlimit="1.45" shape-rendering="geometricPrecision" transform="matrix(1,0,0,1,-142,25)" stroke-linecap="butt">
      <rect fill="none" x="997" width="236" height="20" y="96" clip-path="url(#clipPath2)"/>
      <path fill="none" d="M1007 96 L1007 116 M1223 96 L1223 116 M1007 96 Z" clip-path="url(#clipPath2)"/>
      <text x="1022.1846" xml:space="preserve" y="110.1543" font-family="sans-serif" clip-path="url(#clipPath2)" stroke="none">Data Transfer Completion FIFO</text>
    </g>
    <g fill="url(#linearGradient11)" text-rendering="geometricPrecision" shape-rendering="geometricPrecision" transform="matrix(1,0,0,1,-142,25)" stroke="url(#linearGradient11)">
      <rect x="997" width="236" height="20" y="152" clip-path="url(#clipPath2)" stroke="none"/>
    </g>
    <g text-rendering="geometricPrecision" stroke-miterlimit="1.45" shape-rendering="geometricPrecision" transform="matrix(1,0,0,1,-142,25)" stroke-linecap="butt">
      <rect fill="none" x="997" width="236" height="20" y="152" clip-path="url(#clipPath2)"/>
      <path fill="none" d="M1007 152 L1007 172 M1223 152 L1223 172 M1007 152 Z" clip-path="url(#clipPath2)"/>
      <text x="1019.1494" xml:space="preserve" y="166.1543" font-family="sans-serif" clip-path="url(#clipPath2)" stroke="none">Data Structure Completion FIFO</text>
    </g>
    <g text-rendering="geometricPrecision" stroke-miterlimit="1.45" shape-rendering="geometricPrecision" transform="matrix(1,0,0,1,-142,25)" stroke-linecap="butt">
      <path fill="none" d="M460.9907 106 L497.1035 106" clip-path="url(#clipPath2)"/>
    </g>
    <g text-rendering="geometricPrecision" stroke-miterlimit="1.45" shape-rendering="geometricPrecision" transform="matrix(1,0,0,1,-142,25)" stroke-linecap="butt">
      <path d="M505.1035 106 L493.1035 101 L496.1035 106 L493.1035 111 Z" clip-path="url(#clipPath2)" stroke="none"/>
      <path fill="none" d="M256.9146 106 L292.9928 106" clip-path="url(#clipPath2)"/>
      <path d="M300.9928 106 L288.9928 101 L291.9928 106 L288.9928 111 Z" clip-path="url(#clipPath2)" stroke="none"/>
      <path fill="none" d="M555 86.0098 L555 60 L641.0093 60" clip-path="url(#clipPath2)"/>
      <path d="M649.0093 60 L637.0093 55 L640.0093 60 L637.0093 65 Z" clip-path="url(#clipPath2)" stroke="none"/>
      <path fill="none" d="M604.9146 106 L640.9927 106" clip-path="url(#clipPath2)"/>
      <path d="M648.9927 106 L636.9927 101 L639.9927 106 L636.9927 111 Z" clip-path="url(#clipPath2)" stroke="none"/>
      <path fill="none" d="M555 125.9902 L555 152 L641.0093 152" clip-path="url(#clipPath2)"/>
      <path d="M649.0093 152 L637.0093 147 L640.0093 152 L637.0093 157 Z" clip-path="url(#clipPath2)" stroke="none"/>
      <path fill="none" d="M808.9907 60 L845.1035 60" clip-path="url(#clipPath2)"/>
      <path d="M853.1035 60 L841.1035 55 L844.1035 60 L841.1035 65 Z" clip-path="url(#clipPath2)" stroke="none"/>
      <path fill="none" d="M808.9907 106 L845.1035 106" clip-path="url(#clipPath2)"/>
      <path d="M853.1035 106 L841.1035 101 L844.1035 106 L841.1035 111 Z" clip-path="url(#clipPath2)" stroke="none"/>
      <path fill="none" d="M808.9907 152 L845.1035 152" clip-path="url(#clipPath2)"/>
      <path d="M853.1035 152 L841.1035 147 L844.1035 152 L841.1035 157 Z" clip-path="url(#clipPath2)" stroke="none"/>
      <path fill="none" d="M952.9204 106 L988.962 106" clip-path="url(#clipPath2)"/>
      <path d="M996.962 106 L984.962 101 L987.962 106 L984.962 111 Z" clip-path="url(#clipPath2)" stroke="none"/>
      <path fill="none" d="M1232.969 106 L1274 106 L1274 50 L960.8622 50" clip-path="url(#clipPath2)"/>
      <path d="M952.8622 50 L964.8622 55 L961.8622 50 L964.8622 45 Z" clip-path="url(#clipPath2)" stroke="none"/>
      <path fill="none" d="M952.9204 162 L988.962 162" clip-path="url(#clipPath2)"/>
      <path d="M996.962 162 L984.962 157 L987.962 162 L984.962 167 Z" clip-path="url(#clipPath2)" stroke="none"/>
      <path fill="none" d="M1232.9866 162 L1304 162 L1304 -9.5 L903 -9.5 L903 21.9827" clip-path="url(#clipPath2)"/>
      <path d="M903 29.9827 L908 17.9827 L903 20.9827 L898 17.9827 Z" clip-path="url(#clipPath2)" stroke="none"/>
    </g>
  </g>
</svg>
